^C:\USERS\LALO\DESKTOP\DESARROLLO\PRINCIPIOSDECG\MIDPOINTLINE\X64\DEBUG\APPLICATION.OBJ|C:\USERS\LALO\DESKTOP\DESARROLLO\PRINCIPIOSDECG\MIDPOINTLINE\X64\DEBUG\MIDPOINTLINE.OBJ|C:\USERS\LALO\DESKTOP\DESARROLLO\PRINCIPIOSDECG\MIDPOINTLINE\X64\DEBUG\PIXEL.OBJ|C:\USERS\LALO\DESKTOP\DESARROLLO\PRINCIPIOSDECG\MIDPOINTLINE\X64\DEBUG\PLANE.OBJ|C:\USERS\LALO\DESKTOP\DESARROLLO\PRINCIPIOSDECG\MIDPOINTLINE\X64\DEBUG\SHADERFUNCS.OBJ
C:\WINDOWS\GLOBALIZATION\SORTING\SORTDEFAULT.NLS
C:\USERS\LALO\DESKTOP\DESARROLLO\LIBS\GLFW\SRC\DEBUG\GLFW3DLL.LIB
C:\PROGRAM FILES (X86)\WINDOWS KITS\10\LIB\10.0.15063.0\UM\X64\OPENGL32.LIB
C:\USERS\LALO\DESKTOP\DESARROLLO\LIBS\GLEW\LIB\DEBUG\X64\GLEW32D.LIB
C:\PROGRAM FILES (X86)\WINDOWS KITS\10\LIB\10.0.15063.0\UM\X64\KERNEL32.LIB
C:\PROGRAM FILES (X86)\WINDOWS KITS\10\LIB\10.0.15063.0\UM\X64\USER32.LIB
C:\PROGRAM FILES (X86)\WINDOWS KITS\10\LIB\10.0.15063.0\UM\X64\GDI32.LIB
C:\PROGRAM FILES (X86)\WINDOWS KITS\10\LIB\10.0.15063.0\UM\X64\WINSPOOL.LIB
C:\PROGRAM FILES (X86)\WINDOWS KITS\10\LIB\10.0.15063.0\UM\X64\COMDLG32.LIB
C:\PROGRAM FILES (X86)\WINDOWS KITS\10\LIB\10.0.15063.0\UM\X64\ADVAPI32.LIB
C:\PROGRAM FILES (X86)\WINDOWS KITS\10\LIB\10.0.15063.0\UM\X64\SHELL32.LIB
C:\PROGRAM FILES (X86)\WINDOWS KITS\10\LIB\10.0.15063.0\UM\X64\OLE32.LIB
C:\PROGRAM FILES (X86)\WINDOWS KITS\10\LIB\10.0.15063.0\UM\X64\OLEAUT32.LIB
C:\PROGRAM FILES (X86)\WINDOWS KITS\10\LIB\10.0.15063.0\UM\X64\UUID.LIB
C:\PROGRAM FILES (X86)\WINDOWS KITS\10\LIB\10.0.15063.0\UM\X64\ODBC32.LIB
C:\PROGRAM FILES (X86)\WINDOWS KITS\10\LIB\10.0.15063.0\UM\X64\ODBCCP32.LIB
C:\USERS\LALO\DESKTOP\DESARROLLO\PRINCIPIOSDECG\MIDPOINTLINE\X64\DEBUG\MIDPOINTLINE.OBJ
C:\USERS\LALO\DESKTOP\DESARROLLO\PRINCIPIOSDECG\MIDPOINTLINE\X64\DEBUG\APPLICATION.OBJ
C:\USERS\LALO\DESKTOP\DESARROLLO\PRINCIPIOSDECG\MIDPOINTLINE\X64\DEBUG\PIXEL.OBJ
C:\USERS\LALO\DESKTOP\DESARROLLO\PRINCIPIOSDECG\MIDPOINTLINE\X64\DEBUG\PLANE.OBJ
C:\USERS\LALO\DESKTOP\DESARROLLO\PRINCIPIOSDECG\MIDPOINTLINE\X64\DEBUG\SHADERFUNCS.OBJ
C:\WINDOWS\SYSTEM32\TZRES.DLL
C:\PROGRAM FILES (X86)\MICROSOFT VISUAL STUDIO\2017\COMMUNITY\VC\TOOLS\MSVC\14.11.25503\LIB\X64\MSVCPRTD.LIB
C:\PROGRAM FILES (X86)\MICROSOFT VISUAL STUDIO\2017\COMMUNITY\VC\TOOLS\MSVC\14.11.25503\LIB\X64\MSVCRTD.LIB
C:\PROGRAM FILES (X86)\MICROSOFT VISUAL STUDIO\2017\COMMUNITY\VC\TOOLS\MSVC\14.11.25503\LIB\X64\OLDNAMES.LIB
C:\PROGRAM FILES (X86)\MICROSOFT VISUAL STUDIO\2017\COMMUNITY\VC\TOOLS\MSVC\14.11.25503\LIB\X64\VCRUNTIMED.LIB
C:\PROGRAM FILES (X86)\WINDOWS KITS\10\LIB\10.0.15063.0\UCRT\X64\UCRTD.LIB
